[gd_scene load_steps=5 format=2]

[ext_resource path="res://scenes/game/enemy_shot.gd" type="Script" id=1]
[ext_resource path="res://assets/images/beams.png" type="Texture" id=2]
[ext_resource path="res://assets/sounds/sfx_wpn_laser11.wav" type="AudioStream" id=3]

[sub_resource type="RectangleShape2D" id=1]
extents = Vector2( 2.16179, 10 )

[node name="Area2D" type="Area2D"]
script = ExtResource( 1 )
speed = 500
damage = 200

[node name="Sprite" type="Sprite" parent="."]
texture = ExtResource( 2 )
region_enabled = true
region_rect = Rect2( 36.375, 167.125, 19.375, 34.375 )

[node name="CollisionShape2D" type="CollisionShape2D" parent="."]
shape = SubResource( 1 )

[node name="AudioStreamPlayer" type="AudioStreamPlayer" parent="."]
stream = ExtResource( 3 )
volume_db = -20.99

