[gd_scene load_steps=4 format=2]

[ext_resource path="res://assets/images/space.png" type="Texture" id=1]
[ext_resource path="res://scenes/credits/Credits.gd" type="Script" id=2]
[ext_resource path="res://assets/font/medium_space.tres" type="DynamicFont" id=3]

[node name="Credits" type="Control"]
anchor_right = 1.0
anchor_bottom = 1.0

[node name="space" type="Sprite" parent="."]
position = Vector2( 240.03, 227.334 )
scale = Vector2( 0.448782, 0.448782 )
texture = ExtResource( 1 )

[node name="Position2D" type="Position2D" parent="."]
position = Vector2( 0, 640 )
script = ExtResource( 2 )

[node name="Credits" type="Label" parent="Position2D"]
margin_right = 1019.0
margin_bottom = 1065.0
custom_fonts/font = ExtResource( 3 )
text = "= Project Desing and Programming =
Stephan Kessler

= 2D Art =
(Opengameart.org)
Rawdanitsu
ShinyOgre
surt
Cuzco
Skorpio
Kenney

= Music =
(Opengameart.org)
Gundatsch

= Sound =
(Opengameart.org)
SubspaceAudio

= Engine =
Godot 
"
align = 1

